Chapter 4 Data view | A R Book For MachineLearning
…
            A R Book For MachineLearning

Chapter 4 Data view

As we all know, we need to convert a character type variable to a factor type if the column is a category column.
checking data_column definition and data type in column can help us make a decision .
After checking we change some column to factor

train

## # A tibble: 891 × 12
##    PassengerId Survived Pclass Name                                                Sex      Age SibSp Parch Ticket            Fare Cabin Embarked
##          <dbl> <fct>    <fct>  <chr>                                               <fct>  <dbl> <fct> <fct> <chr>            <dbl> <chr> <fct>   
##  1           1 0        3      Braund, Mr. Owen Harris                             male      22 1     0     A/5 21171         7.25 <NA>  S       
##  2           2 1        1      Cumings, Mrs. John Bradley (Florence Briggs Thayer) female    38 1     0     PC 17599         71.3  C85   C       
##  3           3 1        3      Heikkinen, Miss. Laina                              female    26 0     0     STON/O2. 3101282  7.92 <NA>  S       
##  4           4 1        1      Futrelle, Mrs. Jacques Heath (Lily May Peel)        female    35 1     0     113803           53.1  C123  S       
##  5           5 0        3      Allen, Mr. William Henry                            male      35 0     0     373450            8.05 <NA>  S       
##  6           6 0        3      Moran, Mr. James                                    male      NA 0     0     330877            8.46 <NA>  Q       
##  7           7 0        1      McCarthy, Mr. Timothy J                             male      54 0     0     17463            51.9  E46   S       
##  8           8 0        3      Palsson, Master. Gosta Leonard                      male       2 3     1     349909           21.1  <NA>  S       
##  9           9 1        3      Johnson, Mrs. Oscar W (Elisabeth Vilhelmina Berg)   female    27 0     2     347742           11.1  <NA>  S       
## 10          10 1        2      Nasser, Mrs. Nicholas (Adele Achem)                 female    14 1     0     237736           30.1  <NA>  C       
## # … with 881 more rows

test

## # A tibble: 418 × 11
##    PassengerId Pclass Name                                         Sex      Age SibSp Parch Ticket     Fare Cabin Embarked
##          <dbl> <fct>  <chr>                                        <fct>  <dbl> <fct> <fct> <chr>     <dbl> <chr> <fct>   
##  1         892 3      Kelly, Mr. James                             male    34.5 0     0     330911     7.83 <NA>  Q       
##  2         893 3      Wilkes, Mrs. James (Ellen Needs)             female  47   1     0     363272     7    <NA>  S       
##  3         894 2      Myles, Mr. Thomas Francis                    male    62   0     0     240276     9.69 <NA>  Q       
##  4         895 3      Wirz, Mr. Albert                             male    27   0     0     315154     8.66 <NA>  S       
##  5         896 3      Hirvonen, Mrs. Alexander (Helga E Lindqvist) female  22   1     1     3101298   12.3  <NA>  S       
##  6         897 3      Svensson, Mr. Johan Cervin                   male    14   0     0     7538       9.22 <NA>  S       
##  7         898 3      Connolly, Miss. Kate                         female  30   0     0     330972     7.63 <NA>  Q       
##  8         899 2      Caldwell, Mr. Albert Francis                 male    26   1     1     248738    29    <NA>  S       
##  9         900 3      Abrahim, Mrs. Joseph (Sophie Halaut Easu)    female  18   0     0     2657       7.23 <NA>  C       
## 10         901 3      Davies, Mr. John Samuel                      male    21   2     0     A/4 48871 24.2  <NA>  S       
## # … with 408 more rows
…
