Chapter 6 impute missing data | A R Book For MachineLearning
…
test_imp<-missForest(as.data.frame(test_nochr))[[1]]%>%tibble()

##   missForest iteration 1 in progress...done!
##   missForest iteration 2 in progress...done!
##   missForest iteration 3 in progress...done!

Congratulations !

Now we get the full data without Missing values .

## 
## Train_imp

## # A tibble: 891 × 9
##    PassengerId Survived Pclass Sex      Age SibSp Parch  Fare Embarked
##          <dbl> <fct>    <fct>  <fct>  <dbl> <fct> <fct> <dbl> <fct>   
##  1           1 0        3      male    22   1     0      7.25 S       
##  2           2 1        1      female  38   1     0     71.3  C       
##  3           3 1        3      female  26   0     0      7.92 S       
##  4           4 1        1      female  35   1     0     53.1  S       
##  5           5 0        3      male    35   0     0      8.05 S       
##  6           6 0        3      male    36.5 0     0      8.46 Q       
##  7           7 0        1      male    54   0     0     51.9  S       
##  8           8 0        3      male     2   3     1     21.1  S       
##  9           9 1        3      female  27   0     2     11.1  S       
## 10          10 1        2      female  14   1     0     30.1  C       
## # … with 881 more rows

## 
## Test_imp

## # A tibble: 418 × 8
##    PassengerId Pclass Sex      Age SibSp Parch  Fare Embarked
##          <dbl> <fct>  <fct>  <dbl> <fct> <fct> <dbl> <fct>   
##  1         892 3      male    34.5 0     0      7.83 Q       
##  2         893 3      female  47   1     0      7    S       
##  3         894 2      male    62   0     0      9.69 Q       
##  4         895 3      male    27   0     0      8.66 S       
##  5         896 3      female  22   1     1     12.3  S       
##  6         897 3      male    14   0     0      9.22 S       
##  7         898 3      female  30   0     0      7.63 Q       
##  8         899 2      male    26   1     1     29    S       
##  9         900 3      female  18   0     0      7.23 C       
## 10         901 3      male    21   2     0     24.2  S       
## # … with 408 more rows
…
