Chapter 7 Mod Build by randomForest | A R Book For MachineLearning
…
7.4 Model assessment

we load the actual Survived and compare with predictions.

## Rows: 418 Columns: 2

## ── Column specification ───────────────────────────────────────────────────────────────────────────────────────────────────────────────────────────────────────
## Delimiter: ","
## dbl (2): PassengerId, Survived

## 
## ℹ Use `spec()` to retrieve the full column specification for this data.
## ℹ Specify the column types or set `show_col_types = FALSE` to quiet this message.

## # A tibble: 418 × 3
##    PassengerId Survived.actual Survived.predict
##          <dbl>           <dbl> <fct>           
##  1         892               0 0               
##  2         893               1 0               
##  3         894               0 0               
##  4         895               0 0               
##  5         896               1 0               
##  6         897               0 0               
##  7         898               1 0               
##  8         899               0 0               
##  9         900               1 1               
## 10         901               0 0               
## # … with 408 more rows
…
